<svg version="1.1" id="圖層_1" xmlns="http://www.w3.org/2000/svg" xmlns:xlink="http://www.w3.org/1999/xlink" x="0px" y="0px"
	 viewBox="0 0 160 120" style="enable-background:new 0 0 160 120;" xml:space="preserve">
<style type="text/css">
	.st0{fill:url(#SVGID_1_);}
	.st1{fill:#CCCCCC;}
	.st2{fill:#999999;}
	.st3{fill:none;stroke:#E6E6E6;stroke-width:1.9835;stroke-linejoin:round;stroke-miterlimit:10;}
	.st4{fill:#E6E6E6;}
	.st5{fill:none;stroke:#E6E6E6;stroke-width:3.9669;stroke-linecap:round;stroke-miterlimit:10;}
	.st6{fill:none;stroke:#CCCCCC;stroke-width:1.3223;stroke-linecap:round;stroke-miterlimit:10;}
	.st7{fill:#808080;}
	.st8{fill:#CCCCCC;stroke:#E6E6E6;stroke-width:1.5;stroke-linecap:round;stroke-linejoin:round;stroke-miterlimit:10;}
	.st9{fill:#2196F3;}
	.st10{fill:#FFFFFF;}
	.rocket {
		animation-name: rocketMoves;
		animation-duration: 1s;
		animation-iteration-count: infinite;
	}
	@keyframes rocketMoves {
		0%   { transform: translate(0, -5px); }
		50%  { transform: translate(0, 0); }
		100% { transform: translate(0, -5px); }
	}
</style>
<g><linearGradient id="SVGID_1_" gradientUnits="userSpaceOnUse" x1="80.45" y1="-956" x2="80.45" y2="-920" gradientTransform="matrix(1 0 0 -1 0 -836)"><stop  offset="0" style="stop-color:#FFFFFF"/><stop  offset="1" style="stop-color:#D9D9D9"/></linearGradient><path class="st0" d="M160,120c-14.1-21.3-44.5-36-79.6-36S15,98.7,0.9,120"/><path class="st1" d="M38.7,108.8L38.7,108.8c-1.3,0-2.4-1.1-2.4-2.4v-6.3c0-1.3,1.1-2.4,2.4-2.4l0,0c1.3,0,2.4,1.1,2.4,2.4v6.3C41.1,107.8,40,108.8,38.7,108.8z"/><g><path class="st2" d="M47.3,92.4c0,7.2-3.8,9.5-8.5,9.5s-8.5-2.3-8.5-9.5s3.8-16.6,8.5-16.6S47.3,85.2,47.3,92.4z"/></g><path class="st1" d="M122.7,99L122.7,99c-0.8,0-1.5-0.7-1.5-1.5v-4.1c0-0.8,0.7-1.5,1.5-1.5l0,0c0.8,0,1.5,0.7,1.5,1.5v4.1C124.2,98.3,123.5,99,122.7,99z"/><g><path class="st2" d="M128.2,88.2c0,4.7-2.5,6.2-5.6,6.2s-5.6-1.5-5.6-6.2s2.5-10.8,5.6-10.8C125.7,77.4,128.2,83.5,128.2,88.2z"/></g><circle class="st1" cx="25.1" cy="45.9" r="5.3"/><circle class="st3" cx="55.5" cy="26.8" r="4.6"/><circle class="st4" cx="136.9" cy="55.8" r="3.3"/><circle class="st1" cx="155.4" cy="46" r="1.3"/><circle class="st1" cx="2" cy="55.8" r="2"/><line class="st5" x1="105.8" y1="26.1" x2="113.7" y2="26.1"/><line class="st5" x1="109.8" y1="22.1" x2="109.8" y2="30.1"/><line class="st6" x1="84" y1="3.6" x2="84" y2="5.1"/><line class="st6" x1="81" y1="4.4" x2="81.7" y2="5.7"/><line class="st6" x1="78.8" y1="6.6" x2="80.1" y2="7.3"/><line class="st6" x1="78" y1="9.6" x2="79.5" y2="9.6"/><line class="st6" x1="78.8" y1="12.5" x2="80.1" y2="11.8"/><line class="st6" x1="81" y1="14.7" x2="81.7" y2="13.4"/><line class="st6" x1="84" y1="15.5" x2="84" y2="14"/><line class="st6" x1="86.9" y1="14.7" x2="86.2" y2="13.4"/><line class="st6" x1="89.1" y1="12.5" x2="87.8" y2="11.8"/><line class="st6" x1="89.9" y1="9.6" x2="88.4" y2="9.6"/><line class="st6" x1="89.1" y1="6.6" x2="87.8" y2="7.3"/><line class="st6" x1="86.9" y1="4.4" x2="86.2" y2="5.7"/></g>
<g class="rocket">
	<path class="st4" d="M80.3,31.8c0,0-12.5,10-12.5,21.2v16.8c0,1.7,1.3,3,3,3h19c1.7,0,3-1.3,3-3V53C92.8,41.8,80.3,31.8,80.3,31.8z
		"/>
	<path class="st1" d="M86.8,78.8h-13c-1.7,0-3-1.3-3-3v-3h19v3C89.8,77.5,88.4,78.8,86.8,78.8z"/>
	<circle class="st7" cx="80.3" cy="51.8" r="7"/>
	<rect x="77.8" y="60.3" class="st8" width="5" height="15"/>
	<path class="st1" d="M61.8,59.2l6-3.4v14l-4,2.3c-1.3,0.8-3-0.2-3-1.7V61C60.7,60.3,61.1,59.6,61.8,59.2z"/>
	<path class="st1" d="M98.7,59.2l-6-3.4v14l4,2.3c1.3,0.8,3-0.2,3-1.7V61C99.8,60.3,99.4,59.6,98.7,59.2z"/>
	<path class="st9" d="M88.5,89.3c0-4.5-3.7-8.2-8.2-8.2S72,84.7,72,89.3c0,1.7,0.5,3.4,1.5,4.7l0,0l6.8,10.6L87,94l0,0
		C87.9,92.7,88.5,91,88.5,89.3z"/>
	<path class="st10" d="M84.2,88.1c0-2.2-1.7-3.9-3.9-3.9s-3.9,1.7-3.9,3.9c0,0.8,0.3,1.6,0.7,2.2l0,0l3.2,5l3.2-5l0,0
		C83.9,89.7,84.2,89,84.2,88.1z"/>
</g>
</svg>
